{
  "migIndex": 1,
  "data": [
    {
      "path": "assets/fonts/.DS_Store",
      "sha1": "75c642abc6be3986cc42a467a29b8fbf3e605a1c"
    },
    {
      "path": "assets/fonts/abel_regular.ttf",
      "sha1": "8763e49fc17ca65f97478c809cdbb57141147be0"
    },
    {
      "path": "assets/fonts/avenir_next_condensed.ttf",
      "sha1": "c9bc50dbee0fb2905b1b065c695843006ba9ed71"
    },
    {
      "path": "assets/fonts/avenir_next_condensed_italic.ttf",
      "sha1": "769fcaaae8b011e9ff7d61078459aefab9946723"
    },
    {
      "path": "assets/fonts/hype.ttf",
      "sha1": "352308c596b36ebbb05cb958e815ca60ce9b7885"
    },
    {
      "path": "assets/fonts/hype_bold.ttf",
      "sha1": "49269262cca79f439c8ea58f642f4fb7d305d4f0"
    },
    {
      "path": "assets/fonts/ostrich_regular.ttf",
      "sha1": "efe256fdd63c4486557689c1dbae7c407b319a7e"
    },
    {
      "path": "assets/fonts/ostrichsans_black.otf",
      "sha1": "a4663454b2f65ec68a5264810e9a2818a974d70d"
    },
    {
      "path": "assets/fonts/ostrichsans_bold.otf",
      "sha1": "c7dcda45afa40f66179752886aa32f81fcc398cf"
    },
    {
      "path": "assets/fonts/ostrichsans_heavy.otf",
      "sha1": "f2808209891b81587f6ce3e9fcf77ffc1bad3efd"
    },
    {
      "path": "assets/fonts/ostrichsans_light.otf",
      "sha1": "566b985ecb5225a77f810aaef96c618271f9f4cc"
    },
    {
      "path": "assets/fonts/ostrichsans_medium.otf",
      "sha1": "57179a8bc9488168c0b3c2f879e908fd3361f4d1"
    },
    {
      "path": "assets/fonts/ostrichsansdashed_medium.otf",
      "sha1": "19815064b2c3827145d6672c0f81daadd8c98901"
    },
    {
      "path": "assets/fonts/ostrichsansinline_italic.otf",
      "sha1": "957e9a879bfbc2db684d2412f6b3b3b007894468"
    },
    {
      "path": "assets/fonts/ostrichsansinline_regular.otf",
      "sha1": "aef677f9c3889efd1f0a6d84232f0976da2dc7fd"
    },
    {
      "path": "assets/fonts/ostrichsansrounded_medium.otf",
      "sha1": "93c3d634ec4169f45f6dbcfb5473334a1ace327f"
    },
    {
      "path": "assets/fonts/vtks.ttf",
      "sha1": "253b2b3877f012d7073d21e4a3626f10e9b173dd"
    },
    {
      "path": "assets/sounds/.DS_Store",
      "sha1": "2131355482129c7d5d37c81d7ca49cc1df9fb5dc"
    },
    {
      "path": "assets/sounds/preview_01f53fe9_9ae7_487b_8362_2f7636050dff.mp3",
      "sha1": "e43f0138a1c7e7529aade8a1b6c7177a80c59dc5"
    },
    {
      "path": "assets/sounds/preview_081c3d35_27d8_4a9c_ba8f_ac8ab7c7735e.mp3",
      "sha1": "30c6636b11725087a900d586e4d7aa19783bb758"
    },
    {
      "path": "assets/sounds/preview_0b9b1fd5_4cb7_4724_8fdc_c85121aaa30f.mp3",
      "sha1": "7ca63d717db86a6018555c52ad5db63b8ef7aea0"
    },
    {
      "path": "assets/sounds/preview_0dbfab2b_1789_4399_a94e_0e94efa54fc7.mp3",
      "sha1": "a276539c5b72cbaffa745a6e7414ac8608b6bcd0"
    },
    {
      "path": "assets/sounds/preview_49386444_c777_4200_b0f7_02080e95999a.mp3",
      "sha1": "c87072009652733e6a5ed1cc294555d9563ca031"
    },
    {
      "path": "assets/sounds/preview_aa29715a_3b92_4351_a3d8_ba7ea55eddf9.mp3",
      "sha1": "56f258f282f2d3ca32d86aea833a8586d00d77ff"
    },
    {
      "path": "assets/sounds/preview_c88e373f_2b6d_48b5_b091_f35e9fcd4681.mp3",
      "sha1": "3584ab2e80556f2c0b8bee61e207b2f6ae3120c8"
    },
    {
      "path": "assets/sounds/preview_cc4ee685_088b_4899_9dc2_5c24f25fcc9d.mp3",
      "sha1": "429e9777408c8cffe4bea50974e608b3f8cea219"
    },
    {
      "path": "assets/sounds/preview_ed37fd2e_b3b8_4830_a5b0_01c173f44b25.mp3",
      "sha1": "89a282257e82844ed4176849403c596846fdc37c"
    },
    {
      "path": "assets/sounds/preview_ed92dae2_b45b_4903_a30a_a1587d06147f.mp3",
      "sha1": "5ae61a9953bdff7dab6c952b469563972a5f4160"
    },
    {
      "path": "assets/sounds/silence.mp3",
      "sha1": "b3c7136affc9f174df4e1823421fe31b998188ea"
    },
    {
      "path": "assets/sounds/theme_apptheme_nkmaster_v01.mp3",
      "sha1": "c53fe9ec545ad245a7e155f11c4779211992e615"
    },
    {
      "path": "assets/sounds/theme_homepagebuttonsounds_nkmaster_v01.mp3",
      "sha1": "bab7b55ab9a98205729b775326a4f9d9aa7811ef"
    },
    {
      "path": "assets/sounds/theme_letsgo_nkmaster_v01.mp3",
      "sha1": "eb59b4d019424b1416b24aaa7dac7621e230d7db"
    },
    {
      "path": "assets/sounds/theme_playpause_nkmaster_v01.mp3",
      "sha1": "76a3852f2abf4f1af80976197727f5c8066ff991"
    },
    {
      "path": "assets/sounds/theme_postthemeloop_nkmaster_v01.mp3",
      "sha1": "6b0664a1a13c85e18316ccabe37c11ee52cc55be"
    },
    {
      "path": "assets/sounds/theme_softsimplesound_nkmaster_v01.mp3",
      "sha1": "322c127bea9c929eec38806117de75b8d0fe43b9"
    },
    {
      "path": "assets/sounds/theme_swimponyneighsplash_nkmaster_v01.mp3",
      "sha1": "3fa4836231afd3cd0ea6b02706fa88abc7cf1b56"
    },
    {
      "path": "assets/sounds/theme_swishin_nkmaster_v01.mp3",
      "sha1": "9b815505cab1153536f7dc3780fd6d145b736b09"
    },
    {
      "path": "assets/sounds/theme_xout_nkmaster_v01.mp3",
      "sha1": "823527304e2bd100eab3ce3d7333cbd4f1c7fb1b"
    },
    {
      "path": "assets/sounds/trailoff_hamburgermenububbles_nkmaster_v01.mp3",
      "sha1": "d5e4bfbb6d704e8b42f75c05d6115b18bba2026e"
    }
  ]
}
